{
  "id": "socketItem",
  "type": "object",
  "properties": {
    "id": {
      "type": "string"
    },
    "name": {
      "type": "string",
      "minLength": 1,
      "maxLength": 30
    },
    "type": {
      "oneOf": [
        {
          "type": "array",
          "items": {
            "type": "string"
          }
        },
        {
          "type": "string"
        }
      ]
    }
  },
  "required": ["name", "type"],
  "additionalProperties": false
}
